LAB4/TN4/simulation/qsim/TN4.msim.vcd
$comment
	File created using the following command:
		vcd file TN4.msim.vcd -direction
$end
$date
	Sat Dec 05 00:01:28 2020
$end
$version
	ModelSim Version 10.1d
$end
$timescale
	1ps
$end
$scope module TN4_vlg_vec_tst $end
$var reg 1 ! Cl $end
$var reg 1 " Clk $end
$var reg 1 # D $end
$var reg 1 $ Pr $end
$var wire 1 % Q $end
$var wire 1 & Qn $end
$var wire 1 ' sampler $end
$scope module i1 $end
$var wire 1 ( gnd $end
$var wire 1 ) vcc $end
$var wire 1 * unknown $end
$var tri1 1 + devclrn $end
$var tri1 1 , devpor $end
$var tri1 1 - devoe $end
$var wire 1 . D~combout $end
$var wire 1 / Clk~combout $end
$var wire 1 0 Pr~combout $end
$var wire 1 1 Cl~combout $end
$var wire 1 2 process_0~0_combout $end
$var wire 1 3 Q~1_combout $end
$var wire 1 4 Q~3_combout $end
$var wire 1 5 Q~0_combout $end
$var wire 1 6 Q~reg0_emulated_regout $end
$var wire 1 7 Q~2_combout $end
$var wire 1 8 process_0~1_combout $end
$var wire 1 9 Qn~1_combout $end
$var wire 1 : Qn~3_combout $end
$var wire 1 ; Qn~0_combout $end
$var wire 1 < Qn~reg0_emulated_regout $end
$var wire 1 = Qn~2_combout $end
$upscope $end
$upscope $end
$enddefinitions $end
#0
$dumpvars
0!
0"
1#
0$
1%
1&
x'
0(
1)
x*
1+
1,
1-
1.
0/
00
01
02
13
04
15
06
17
08
19
1:
1;
0<
1=
$end
#2500000
1"
1/
0'
#4000000
0#
0.
1'
0:
14
#4480000
1!
11
0'
0;
18
0=
1;
09
1:
0&
#5000000
0"
0/
1'
#7500000
1"
1/
0'
#8000000
1#
1.
1'
0:
04
#8960000
1$
0!
10
01
0'
08
05
12
1=
19
07
15
03
1:
14
1&
0%
#10000000
0"
0#
0/
0.
1'
0:
04
#12500000
1"
1/
0'
#14000000
1#
1.
1'
1:
14
#14720000
1!
0#
11
0.
0'
0;
02
0:
04
05
#15000000
0"
0/
1'
#17500000
1"
1/
0'
#19200000
1#
1.
1'
1:
14
#20000000
0"
0/
0'
#22500000
1"
1/
1'
1<
16
0=
17
0&
1%
#24320000
0#
0.
0'
0:
04
#25000000
0"
0/
1'
#25600000
1#
1.
0'
1:
14
#27500000
1"
1/
1'
#29440000
0#
0.
0'
0:
04
#30000000
0"
0/
1'
#31360000
1#
1.
0'
1:
14
#32500000
1"
1/
1'
#35000000
0"
0/
0'
#36480000
0#
0.
1'
0:
04
#37500000
1"
1/
0'
0<
06
1=
07
1&
0%
#40000000
0"
0/
1'
#42500000
1"
1/
0'
#45000000
0"
0/
1'
#47500000
1"
1/
0'
#50000000
0"
0/
1'
#52500000
1"
1/
0'
#55000000
0"
0/
1'
#57500000
1"
1/
0'
#60000000
0"
0/
1'
#62500000
1"
1/
0'
#65000000
0"
0/
1'
#67500000
1"
1/
0'
#70000000
0"
0/
1'
#72500000
1"
1/
0'
#75000000
0"
0/
1'
#77500000
1"
1/
0'
#80000000
0"
0/
1'
#82500000
1"
1/
0'
#85000000
0"
0/
1'
#87040000
0$
0!
00
01
0'
17
15
13
1;
14
1%
#87500000
1"
1/
1'
#90000000
0"
0/
0'
#92500000
1"
1/
1'
#95000000
0"
0/
0'
#97500000
1"
1/
1'
