LAB4/TN5/simulation/qsim/TN5.msim.vcd
$comment
	File created using the following command:
		vcd file TN5.msim.vcd -direction
$end
$date
	Fri Dec 04 23:43:26 2020
$end
$version
	ModelSim Version 10.1d
$end
$timescale
	1ps
$end
$scope module TN5_vlg_vec_tst $end
$var reg 1 ! Cl $end
$var reg 1 " Clk $end
$var reg 1 # J $end
$var reg 1 $ K $end
$var reg 1 % Pr $end
$var wire 1 & Q $end
$var wire 1 ' Qn $end
$var wire 1 ( sampler $end
$scope module i1 $end
$var wire 1 ) gnd $end
$var wire 1 * vcc $end
$var wire 1 + unknown $end
$var tri1 1 , devclrn $end
$var tri1 1 - devpor $end
$var tri1 1 . devoe $end
$var wire 1 / Qp~_emulated_regout $end
$var wire 1 0 Qt~regout $end
$var wire 1 1 Qp~3_combout $end
$var wire 1 2 Qp~0_combout $end
$var wire 1 3 Qt~0_combout $end
$var wire 1 4 process_0~2_combout $end
$var wire 1 5 J~combout $end
$var wire 1 6 K~combout $end
$var wire 1 7 Clk~combout $end
$var wire 1 8 Pr~combout $end
$var wire 1 9 process_0~0_combout $end
$var wire 1 : Cl~combout $end
$var wire 1 ; process_0~1_combout $end
$var wire 1 < Qp~1_combout $end
$var wire 1 = Qp~2_combout $end
$var wire 1 > Q~0_combout $end
$var wire 1 ? Qn~0_combout $end
$upscope $end
$upscope $end
$enddefinitions $end
#0
$dumpvars
0!
0"
1#
1$
0%
1&
1'
x(
0)
1*
x+
1,
1-
1.
0/
00
x1
02
x3
14
15
16
07
08
09
0:
0;
x<
x=
1>
1?
$end
#2000000
0#
0$
05
06
0(
#4000000
1#
1$
15
16
1(
#5000000
1"
17
0(
#6000000
0#
0$
05
06
1(
#10000000
0"
1#
1$
07
15
16
0(
x/
#10880000
1%
18
1(
x?
x>
1;
04
03
0=
0<
12
x'
x&
1?
0>
01
1'
0&
0/
#14000000
0#
0$
05
06
0(
11
#15000000
1"
17
1(
#16000000
1#
1$
15
16
0(
01
#19840000
0%
0#
0$
08
05
06
1(
1>
0;
14
13
11
02
1&
#20000000
0"
07
0(
1/
1=
03
#23680000
1!
1:
1(
0?
19
04
1<
12
0'
01
0/
#25000000
1"
17
0(
#30000000
0"
07
1(
#30080000
1%
1$
18
16
0(
09
11
02
#34560000
0$
06
1(
01
#35000000
1"
17
0(
#37120000
1#
15
1(
#40000000
0"
07
0(
#42240000
0#
05
1(
#44800000
1$
1#
16
15
0(
11
#45000000
1"
17
1(
#50000000
0"
07
0(
1/
0=
1?
0>
13
1'
0&
#50560000
0$
0#
06
05
1(
01
#55000000
1"
17
0(
#60000000
0"
07
1(
0/
10
1=
11
0?
1>
03
0'
1&
#65000000
1"
17
0(
#70000000
0"
07
1(
1/
00
0=
01
1?
0>
13
1'
0&
#75000000
1"
17
0(
#80000000
0"
07
1(
0/
10
1=
11
0?
1>
03
0'
1&
#85000000
1"
17
0(
#90000000
0"
07
1(
1/
00
0=
01
1?
0>
13
1'
0&
#95000000
1"
17
0(
#99840000
0!
0%
0:
08
1(
1>
14
1&
